{
    "openapi": "3.0.0",
    "info": {
        "title": "Movies",
        "description": "Документация API",
        "termsOfService": "http://localhost:8080/terms/",
        "contact": {
            "email": "alex@betev.ru"
        },
        "license": {
            "name": "Apache 2.0",
            "url": "http://www.apache.org/licenses/LICENSE-2.0.html"
        },
        "version": "1.0.0"
    },
    "paths": {
        "/api/actors": {
            "get": {
                "tags": [
                    "Actor"
                ],
                "description": "Actors",
                "operationId": "App\\Http\\Controllers\\Api\\ActorController::index",
                "responses": {
                    "200": {
                        "description": "Actors",
                        "content": {
                            "application/json": {
                                "schema": {
                                    "type": "array",
                                    "items": {
                                        "example": {
                                            "id": 1,
                                            "fname": "Axel",
                                            "lname": "F"
                                        }
                                    }
                                }
                            }
                        }
                    }
                }
            }
        },
        "/api/genres": {
            "get": {
                "tags": [
                    "Genre"
                ],
                "description": "Genres",
                "operationId": "App\\Http\\Controllers\\Api\\GenreController::index",
                "responses": {
                    "200": {
                        "description": "Genres",
                        "content": {
                            "application/json": {
                                "schema": {
                                    "type": "array",
                                    "items": {
                                        "example": {
                                            "id": 1,
                                            "name": "Drama"
                                        }
                                    }
                                }
                            }
                        }
                    }
                }
            }
        },
        "/api/movies": {
            "get": {
                "tags": [
                    "Movie"
                ],
                "description": "Movies",
                "operationId": "App\\Http\\Controllers\\Api\\MovieController::index",
                "parameters": [
                    {
                        "name": "genre_id",
                        "in": "query",
                        "description": "Genre ID",
                        "schema": {
                            "type": "integer"
                        }
                    },
                    {
                        "name": "actor",
                        "in": "query",
                        "description": "Actor",
                        "schema": {
                            "type": "string"
                        }
                    }
                ],
                "responses": {
                    "200": {
                        "description": "Movies",
                        "content": {
                            "application/json": {
                                "schema": {
                                    "properties": {
                                        "current_page": {
                                            "type": "integer"
                                        },
                                        "data": {
                                            "type": "array",
                                            "items": {
                                                "properties": {
                                                    "id": {
                                                        "type": "integer"
                                                    },
                                                    "genre_id": {
                                                        "type": "integer"
                                                    },
                                                    "created_at": {
                                                        "example": "2020-06-15 12:00:00"
                                                    },
                                                    "updated_at": {
                                                        "example": "2020-06-15 12:00:00"
                                                    },
                                                    "genre": {
                                                        "example": {
                                                            "id": 1,
                                                            "name": "Drama"
                                                        }
                                                    },
                                                    "actors": {
                                                        "type": "array",
                                                        "items": {
                                                            "properties": {
                                                                "id": {
                                                                    "type": "integer"
                                                                },
                                                                "fname": {
                                                                    "type": "string"
                                                                },
                                                                "lname": {
                                                                    "type": "string"
                                                                }
                                                            },
                                                            "type": "object"
                                                        }
                                                    }
                                                },
                                                "type": "object"
                                            }
                                        },
                                        "from": {
                                            "type": "integer"
                                        },
                                        "last_page": {
                                            "type": "integer"
                                        },
                                        "per_page": {
                                            "type": "integer"
                                        },
                                        "to": {
                                            "type": "integer"
                                        },
                                        "total": {
                                            "type": "integer"
                                        }
                                    },
                                    "type": "object"
                                }
                            }
                        }
                    }
                }
            }
        },
        "/api/movies/{movie}": {
            "get": {
                "tags": [
                    "Movie"
                ],
                "description": "Movies",
                "operationId": "App\\Http\\Controllers\\Api\\MovieController::show",
                "parameters": [
                    {
                        "name": "movie",
                        "in": "path",
                        "description": "Movie ID",
                        "schema": {
                            "type": "integer"
                        }
                    }
                ],
                "responses": {
                    "200": {
                        "description": "Movies",
                        "content": {
                            "application/json": {
                                "schema": {
                                    "properties": {
                                        "id": {
                                            "type": "integer"
                                        },
                                        "genre_id": {
                                            "type": "integer"
                                        },
                                        "created_at": {
                                            "example": "2020-06-15 12:00:00"
                                        },
                                        "updated_at": {
                                            "example": "2020-06-15 12:00:00"
                                        },
                                        "genre": {
                                            "example": {
                                                "id": 1,
                                                "name": "Drama"
                                            }
                                        },
                                        "actors": {
                                            "type": "array",
                                            "items": {
                                                "properties": {
                                                    "id": {
                                                        "type": "integer"
                                                    },
                                                    "fname": {
                                                        "type": "string"
                                                    },
                                                    "lname": {
                                                        "type": "string"
                                                    }
                                                },
                                                "type": "object"
                                            }
                                        }
                                    },
                                    "type": "object"
                                }
                            }
                        }
                    }
                }
            },
            "delete": {
                "tags": [
                    "Movie"
                ],
                "description": "Movies",
                "operationId": "App\\Http\\Controllers\\Api\\MovieController::delete",
                "parameters": [
                    {
                        "name": "movie",
                        "in": "path",
                        "description": "Movie ID",
                        "required": true,
                        "schema": {
                            "type": "integer"
                        }
                    }
                ],
                "responses": {
                    "200": {
                        "description": "Movies",
                        "content": {
                            "application/json": {
                                "schema": {},
                                "example": {
                                    "data": "Success"
                                }
                            }
                        }
                    }
                }
            }
        }
    },
    "components": {
        "schemas": {
            "Actor": {
                "properties": {
                    "id": {
                        "description": "Actor ID",
                        "type": "integer"
                    },
                    "fname": {
                        "description": "Actor first name",
                        "type": "string"
                    },
                    "lname": {
                        "description": "Actor last name",
                        "type": "string"
                    }
                },
                "type": "object",
                "xml": {
                    "name": "Actor"
                }
            },
            "ActorMovie": {
                "properties": {
                    "id": {
                        "description": "ID",
                        "type": "integer"
                    },
                    "movie_id": {
                        "description": "Movie ID",
                        "type": "integer"
                    },
                    "actor_id": {
                        "description": "Actor ID",
                        "type": "integer"
                    }
                },
                "type": "object",
                "xml": {
                    "name": "ActorMovie"
                }
            },
            "Genre": {
                "properties": {
                    "id": {
                        "description": "Genre ID",
                        "type": "integer"
                    },
                    "name": {
                        "description": "Genre name",
                        "type": "string"
                    }
                },
                "type": "object",
                "xml": {
                    "name": "Genre"
                }
            },
            "Movie": {
                "properties": {
                    "id": {
                        "description": "MovieID",
                        "type": "integer"
                    },
                    "genre_id": {
                        "description": "Genre ID",
                        "type": "integer"
                    },
                    "title": {
                        "description": "Movie title",
                        "type": "string"
                    }
                },
                "type": "object",
                "xml": {
                    "name": "Movie"
                }
            }
        }
    },
    "security": [
        []
    ]
}